[testseries.edugorilla.com/index.html]
[testseries.edugorilla.com/static/media/wl_client_images/381acc4073d8485ebd52962572d8cff6.png]
[testseries.edugorilla.com/static/images/og_image8f98.png]
[testseries.edugorilla.com/manifest.json]
[cdn.onesignal.com/sdks/OneSignalSDK.js]
[maxcdn.bootstrapcdn.com/bootstrap/3.3.5/css/bootstrap.min.css]
[use.fontawesome.com/releases/v5.12.1/css/all.css]
[ajax.googleapis.com/ajax/libs/jquery/3.2.1/jquery.min.js]
[maxcdn.bootstrapcdn.com/bootstrap/3.3.5/js/bootstrap.min.js]
[ajax.googleapis.com/ajax/libs/angularjs/1.6.9/angular.min.js]
[ajax.googleapis.com/ajax/libs/angularjs/1.6.9/angular-animate.min.js]
[testseries.edugorilla.com/static/css/test_series_common8735.css]
[testseries.edugorilla.com/static/css/menu_desktop3011.css]
[testseries.edugorilla.com/static/css/footer_desktop11f6.css]
[testseries.edugorilla.com/static/css/test_series_menu6d9e.css]
[backblue.gif]
[fade.gif]
[index.html]
[testseries.edugorilla.com/static/js/menu_desktop0731.js]
[testseries.edugorilla.com/static/js/homepage_new0e80.js]
[testseries.edugorilla.com/static/css/homepage_newcbe6.css]
[testseries.edugorilla.com/static/node_modules/lightslider/css/lightslider1fcd.css]
[connect.facebook.net/en_US/fbevents.js]
[testseries.edugorilla.com/static/media/wl_client_images/261b6257b07841e09ed2e61ac4702081.png]
[testseries.edugorilla.com/exams/banking/521.html]
[testseries.edugorilla.com/ecatalog/59/bank-po-clerical.html]
[testseries.edugorilla.com/ecatalog/1062/bank-specialist-officer-so.html]
[testseries.edugorilla.com/exams/government-exams/525.html]
[testseries.edugorilla.com/ecatalog/375/ap-polycet.html]
[testseries.edugorilla.com/ecatalog/168/ap-village-revenue-officer.html]
[testseries.edugorilla.com/ecatalog/158/appsc-welfare-officer.html]
[testseries.edugorilla.com/ecatalog/1635/andhra-pradesh-grama---ward-sachivalayam.html]
[testseries.edugorilla.com/ecatalog/1637/arunachal-pradesh-staff-selection-board-apssb.html]
[testseries.edugorilla.com/ecatalog/782/bhabha-atomic-research-centre-barc.html]
[testseries.edugorilla.com/ecatalog/1291/bihar-combined-entrance-competitive-examination-board-bceceb.html]
[testseries.edugorilla.com/ecatalog/751/bihar-rural-livelihoods-promotion-society-brlps.html]
[testseries.edugorilla.com/ecatalog/1646/bureau-of-indian-standards-bis.html]
[testseries.edugorilla.com/ecatalog/363/cbee-msc-bt-jnu.html]
[testseries.edugorilla.com/ecatalog/606/central-warehousing-corporation-cwc.html]
[testseries.edugorilla.com/ecatalog/1675/chennai-metropolitan-development-authority-cmda.html]
[testseries.edugorilla.com/ecatalog/146/clerk---office-assistant-steno.html]
[testseries.edugorilla.com/ecatalog/728/drdo.html]
[testseries.edugorilla.com/ecatalog/123/employees-provident-fund-organization-epfo.html]
[testseries.edugorilla.com/ecatalog/723/fssai.html]
[testseries.edugorilla.com/ecatalog/1452/film-television-institute-of-india-ftii.html]
[testseries.edugorilla.com/ecatalog/152/fire-operator.html]
[testseries.edugorilla.com/ecatalog/172/food-corporation-of-india-fci.html]
[testseries.edugorilla.com/ecatalog/132/forest-service.html]
[testseries.edugorilla.com/ecatalog/860/gujarat-subordinate-service-selection-board-gsssb.html]
[testseries.edugorilla.com/ecatalog/816/haryana-kurukshetra-university.html]
[testseries.edugorilla.com/ecatalog/725/haryana-ssc.html]
[testseries.edugorilla.com/ecatalog/188/high-court.html]
[testseries.edugorilla.com/ecatalog/1334/himachal-pradesh-staff-selection-commission-hpssc.html]
[testseries.edugorilla.com/ecatalog/1206/income-tax-department.html]
[testseries.edugorilla.com/ecatalog/1410/india-post-bhartiya-dak-vibhag.html]
[testseries.edugorilla.com/ecatalog/1277/jammu-kashmir-service-selection-board-jkssb.html]
[testseries.edugorilla.com/ecatalog/959/kendriya-hindi-sansthan.html]
[testseries.edugorilla.com/ecatalog/761/khadi-and-village-industries-commission.html]
[testseries.edugorilla.com/ecatalog/730/mp-professional-examination-board---vyapam.html]
[testseries.edugorilla.com/ecatalog/961/madhya-pradesh-power-generating-company-limited-mp-pgcl.html]
[testseries.edugorilla.com/ecatalog/1009/maharashtra-hsc-board.html]
[testseries.edugorilla.com/ecatalog/800/maharashtra-state-electricity-distribution-co-ltd-mahadiscom.html]
[testseries.edugorilla.com/ecatalog/969/mazagon-dock-shipbuilders-limited-mdl.html]
[testseries.edugorilla.com/ecatalog/1301/motilal-nehru-national-institute-of-technology-mnnit.html]
[testseries.edugorilla.com/ecatalog/337/nactech-nasscom.html]
[testseries.edugorilla.com/ecatalog/826/national-consumer-disputes-redressal-commission-ncdrc.html]
[testseries.edugorilla.com/ecatalog/830/nehru-yuva-kendra-sangathan-nyks.html]
[testseries.edugorilla.com/ecatalog/184/opsc-assistant-section-officer.html]
[testseries.edugorilla.com/ecatalog/785/odisha-staff-selection-commission-ossc.html]
[testseries.edugorilla.com/ecatalog/759/others.html]
[testseries.edugorilla.com/ecatalog/150/punsup-food-inspector.html]
[testseries.edugorilla.com/ecatalog/229/panchayath-development-officer-pdo.html]
[testseries.edugorilla.com/ecatalog/144/prasar-bharti.html]
[testseries.edugorilla.com/ecatalog/1337/punjab-revenue-department.html]
[testseries.edugorilla.com/ecatalog/753/rajasthan-staff-selection-board-rssb.html]
[testseries.edugorilla.com/ecatalog/1371/revenue-department-karnataka.html]
[testseries.edugorilla.com/ecatalog/140/section-officer-commercial-audit.html]
[testseries.edugorilla.com/ecatalog/778/security-printing-and-minting-corporation-of-india-ltd-spmcil.html]
[testseries.edugorilla.com/ecatalog/802/up-anganwadi.html]
[testseries.edugorilla.com/ecatalog/1326/up-combined-agriculture-and-technology-entrance-test-upcatet.html]
[testseries.edugorilla.com/ecatalog/543/upsssc.html]
[testseries.edugorilla.com/ecatalog/571/uttar-pradesh-power-corporation-limited-uppcl.html]
[testseries.edugorilla.com/ecatalog/1019/uttarakhand-board-of-technical-education-ubter.html]
[testseries.edugorilla.com/ecatalog/1050/uttarakhand-subordinate-service-selection-commission-uksssc.html]
[testseries.edugorilla.com/exams/ssc/531.html]
[testseries.edugorilla.com/ecatalog/190/bihar-staff-selection-commission-bssc.html]
[testseries.edugorilla.com/ecatalog/73/chsl-combined-higher-secondary-level.html]
[testseries.edugorilla.com/ecatalog/82/ssc-cgl-tier-1-2.html]
[testseries.edugorilla.com/ecatalog/1373/ssc-common-entrance-test-cet.html]
[testseries.edugorilla.com/ecatalog/80/ssc-constable-gd.html]
[testseries.edugorilla.com/ecatalog/88/ssc-mts.html]
[testseries.edugorilla.com/ecatalog/889/ssc-pradhyapak.html]
[testseries.edugorilla.com/ecatalog/1169/ssc-scientific-assistant.html]
[testseries.edugorilla.com/ecatalog/839/ssc-selection-post.html]
[testseries.edugorilla.com/ecatalog/134/ssc-sub-inspector-cpo.html]
[testseries.edugorilla.com/ecatalog/697/ssc-translator.html]
[testseries.edugorilla.com/ecatalog/142/stenographer-grades-c-and-d.html]
[testseries.edugorilla.com/exams/civil-services/518.html]
[testseries.edugorilla.com/ecatalog/75/civil-services-upsc-prelims.html]
[testseries.edugorilla.com/ecatalog/864/state-commissioned-exams.html]
[testseries.edugorilla.com/ecatalog/536/state-psc-prelims.html]
[testseries.edugorilla.com/exams/engineering-entrance/528.html]
[testseries.edugorilla.com/ecatalog/539/engineering-all-india.html]
[testseries.edugorilla.com/ecatalog/1166/iti---polytechnic.html]
[testseries.edugorilla.com/ecatalog/538/state-engineering-exams.html]
[testseries.edugorilla.com/exams/medical/520.html]
[testseries.edugorilla.com/ecatalog/873/aiims-staff-nurse.html]
[testseries.edugorilla.com/ecatalog/795/medical-clerical-exams.html]
[testseries.edugorilla.com/ecatalog/919/national-health-mission-nhm.html]
[testseries.edugorilla.com/ecatalog/1238/national-rural-health-mission-nrhm.html]
[testseries.edugorilla.com/ecatalog/537/other-medical-exams.html]
[testseries.edugorilla.com/ecatalog/297/pg-medical-entrance.html]
[testseries.edugorilla.com/ecatalog/1680/pharmacy-entrance.html]
[testseries.edugorilla.com/ecatalog/1026/state-level-exams.html]
[testseries.edugorilla.com/ecatalog/299/ug-medical-entrance-neet-aiims-jipmer.html]
[testseries.edugorilla.com/exams/teaching/526.html]
[testseries.edugorilla.com/ecatalog/192/army-welfare-education-society.html]
[testseries.edugorilla.com/ecatalog/934/assam-teaching-eligibility-test-atet.html]
[testseries.edugorilla.com/ecatalog/128/bed-med.html]
[testseries.edugorilla.com/ecatalog/355/bscagriculturebhu.html]
[testseries.edugorilla.com/ecatalog/1015/bihar-special-teacher-eligibility-test-stet.html]
[testseries.edugorilla.com/ecatalog/614/csir-net.html]
[testseries.edugorilla.com/ecatalog/1332/chhattishgarh-teacher-eligibility-test-cgtet.html]
[testseries.edugorilla.com/ecatalog/154/delhi-subordinate-services-selection-board-dsssb.html]
[testseries.edugorilla.com/ecatalog/1148/haryana-teachers-eligibility-test-htet.html]
[testseries.edugorilla.com/ecatalog/1700/karnataka-teacher-eligibility-test-kartet.html]
[testseries.edugorilla.com/ecatalog/548/kendriya-vidyalaya-sangathan-kvs.html]
[testseries.edugorilla.com/ecatalog/1157/kerala-teacher-eligibility-test-ktet.html]
[testseries.edugorilla.com/ecatalog/1307/madhya-pradesh-teacher-eligibility-test-mptet.html]
[testseries.edugorilla.com/ecatalog/1348/motilal-nehru-national-institute-of-technology-mnnit.html]
[testseries.edugorilla.com/ecatalog/125/nta-ugc-net.html]
[testseries.edugorilla.com/ecatalog/631/navodaya-vidyalaya-samiti-nvs.html]
[testseries.edugorilla.com/ecatalog/797/odisha-teachers-eligibility-test-otet.html]
[testseries.edugorilla.com/ecatalog/1202/rajasthan-eligibility-exams-for-teachers-reet.html]
[testseries.edugorilla.com/ecatalog/1683/sikkim-teachers-eligibility-test-sikkim-tet.html]
[testseries.edugorilla.com/ecatalog/1657/staff-selection-board-dadra-and-nagar-haveli-dnhssb.html]
[testseries.edugorilla.com/ecatalog/767/tamil-nadu-teacher-recruitment-board-tn-trb.html]
[testseries.edugorilla.com/ecatalog/90/teachers-eligibility-test-ctet-tet.html]
[testseries.edugorilla.com/ecatalog/561/up-assistant-teacher.html]
[testseries.edugorilla.com/ecatalog/984/uttar-pradesh-teaching-eligibility-test-uptet.html]
[testseries.edugorilla.com/ecatalog/1714/west-bengal-teachers-eligibility-test-wbtet.html]
[testseries.edugorilla.com/exams/management/519.html]
[testseries.edugorilla.com/ecatalog/13/bba-entrance.html]
[testseries.edugorilla.com/ecatalog/21/hotel-management.html]
[testseries.edugorilla.com/ecatalog/25/ignou-openmat.html]
[testseries.edugorilla.com/ecatalog/19/ipm-iimindore.html]
[testseries.edugorilla.com/ecatalog/371/integral-university-entrance-test-iuet.html]
[testseries.edugorilla.com/ecatalog/31/msc-finance-entrance.html]
[testseries.edugorilla.com/ecatalog/1/mba-entrance.html]
[testseries.edugorilla.com/ecatalog/17/nalsar-management-entrance-test.html]
[testseries.edugorilla.com/ecatalog/1344/post-graduate-diploma.html]
[testseries.edugorilla.com/ecatalog/584/shri-ram-college-of-commerce-srcc.html]
[testseries.edugorilla.com/ecatalog/254/tissnet.html]
[testseries.edugorilla.com/ecatalog/29/ugat.html]
[testseries.edugorilla.com/ecatalog/27/upes-met.html]
[testseries.edugorilla.com/exams/computer-information-technology/524.html]
[testseries.edugorilla.com/ecatalog/282/android.html]
[testseries.edugorilla.com/ecatalog/540/bca-entrance.html]
[testseries.edugorilla.com/ecatalog/1412/centre-for-development-of-advanced-computing-cdac.html]
[testseries.edugorilla.com/ecatalog/225/computer-basics.html]
[testseries.edugorilla.com/ecatalog/317/mca-entrance.html]
[testseries.edugorilla.com/exams/graduate-engineering/535.html]
[testseries.edugorilla.com/ecatalog/691/airport-authority-of-india-aai.html]
[testseries.edugorilla.com/ecatalog/1378/barc-engineering-graduate-science-postgraduates.html]
[testseries.edugorilla.com/ecatalog/100/bsnl.html]
[testseries.edugorilla.com/ecatalog/1405/bihar-state-power-holding-company-ltd-bsphcl.html]
[testseries.edugorilla.com/ecatalog/1138/birhan-mumbai-municipal-corporation-bmc.html]
[testseries.edugorilla.com/ecatalog/1281/delhi-metro-rail-corporation-dmrc.html]
[testseries.edugorilla.com/ecatalog/926/delhi-subordinate-staff-selection-board-dsssb.html]
[testseries.edugorilla.com/ecatalog/1152/energy-efficiency-services-limited-eesl.html]
[testseries.edugorilla.com/ecatalog/303/gate.html]
[testseries.edugorilla.com/ecatalog/1264/gujarat-state-electricity-corporation-limited-gsecl.html]
[testseries.edugorilla.com/ecatalog/1005/hssc-je.html]
[testseries.edugorilla.com/ecatalog/315/ies-ese.html]
[testseries.edugorilla.com/ecatalog/1387/jaipur-metro-rail-corporation-jmrc.html]
[testseries.edugorilla.com/ecatalog/1641/jaipur-vidyut-vitran-nigam-limited-jvvnl.html]
[testseries.edugorilla.com/ecatalog/1293/mppeb-sub-engineer.html]
[testseries.edugorilla.com/ecatalog/1261/mppsc-assistant-engineer-ae.html]
[testseries.edugorilla.com/ecatalog/1662/national-informatics-centre-nic.html]
[testseries.edugorilla.com/ecatalog/1288/noida-metro-rail-corporation-nmrc.html]
[testseries.edugorilla.com/ecatalog/1686/others.html]
[testseries.edugorilla.com/ecatalog/1134/paschim-gujarat-vij-company-limited-pgvcl.html]
[testseries.edugorilla.com/ecatalog/995/punjab-sate-power-corporation-limited-pspcl.html]
[testseries.edugorilla.com/ecatalog/563/rrb-je-junior-engineer.html]
[testseries.edugorilla.com/ecatalog/223/ssc-je.html]
[testseries.edugorilla.com/ecatalog/1183/tata-iron-and-steel-company-limited-tisco.html]
[testseries.edugorilla.com/ecatalog/1196/uttar-pradesh-metro-rail-corporation-upmrc.html]
[testseries.edugorilla.com/ecatalog/1040/uttar-pradesh-power-corporation-limited-uppcl.html]
[testseries.edugorilla.com/ecatalog/1365/west-bengal-municipal-service-commission.html]
[testseries.edugorilla.com/ecatalog/846/west-bengal-state-electricity-transmission-company-limited-wbsetcl.html]
[testseries.edugorilla.com/exams/railway/527.html]
[testseries.edugorilla.com/ecatalog/771/rrb-stenographer.html]
[testseries.edugorilla.com/ecatalog/156/railway-apprentice.html]
[testseries.edugorilla.com/ecatalog/568/railway-police-rpf.html]
[testseries.edugorilla.com/ecatalog/68/railway-recruitment-board-rrb.html]
[testseries.edugorilla.com/exams/professional-certification-courses/558.html]
[testseries.edugorilla.com/ecatalog/278/it-certificate-programs.html]
[testseries.edugorilla.com/ecatalog/559/sap.html]
[testseries.edugorilla.com/exams/psus-research/742.html]
[testseries.edugorilla.com/ecatalog/1141/bharat-heavy-electricals-limited-bhel.html]
[testseries.edugorilla.com/ecatalog/1047/bharat-sanchar-nigam-limited-bsnl.html]
[testseries.edugorilla.com/ecatalog/1268/coal-india-limited.html]
[testseries.edugorilla.com/ecatalog/1622/cochin-shipyard-limited-csl.html]
[testseries.edugorilla.com/ecatalog/1716/dedicated-freight-corridor-corporation-of-india-limited-dfccil.html]
[testseries.edugorilla.com/ecatalog/1403/electronics-corporation-of-india-limited-ecil.html]
[testseries.edugorilla.com/ecatalog/1482/haryana-state-electronics-development-corporation-limited-hartron.html]
[testseries.edugorilla.com/ecatalog/1029/hindustan-petroleum-corporation-limited-hpcl.html]
[testseries.edugorilla.com/ecatalog/1321/indian-oil-corporation-limited-iocl.html]
[testseries.edugorilla.com/ecatalog/1079/indian-space-research-organisation-isro.html]
[testseries.edugorilla.com/ecatalog/869/indian-statistical-institute.html]
[testseries.edugorilla.com/ecatalog/1703/manganese-ore-india-limited-moil-limited.html]
[testseries.edugorilla.com/ecatalog/743/national-fertilizers-ltd-nfl.html]
[testseries.edugorilla.com/ecatalog/1719/neyveli-lignite-corporation-india-limited-nlcil.html]
[testseries.edugorilla.com/ecatalog/1678/northern-coalfields-limited-ncl.html]
[testseries.edugorilla.com/ecatalog/893/nuclear-power-corporation-of-india-limited-npcil.html]
[testseries.edugorilla.com/ecatalog/773/oil-india-limited.html]
[testseries.edugorilla.com/ecatalog/978/oil-and-natural-gas-corporation.html]
[testseries.edugorilla.com/ecatalog/1465/rail-india-technical-and-economic-service-ltd-rites.html]
[testseries.edugorilla.com/ecatalog/1142/steel-authority-of-india-limited-sail.html]
[testseries.edugorilla.com/ecatalog/1180/telangana-state-southern-power-distribution-company-ltd-tsspdcl.html]
[testseries.edugorilla.com/ecatalog/1368/vizag-steel-plant-rashtriya-ispat-nigam-ltd-rinl.html]
[testseries.edugorilla.com/exams/finance/1096.html]
[testseries.edugorilla.com/ecatalog/1097/certified-associate-of-indian-institute-of-bankers-caiib.html]
[testseries.edugorilla.com/ecatalog/1408/indian-institute-of-banking-and-finance-iibf.html]
[testseries.edugorilla.com/ecatalog/1099/junior-associate-of-indian-institute-of-bankers-jaiib.html]
[testseries.edugorilla.com/exams/online-test/574.html]
[testseries.edugorilla.com/ecatalog/575/centurion-academy.html]
[testseries.edugorilla.com/exams/law-arts-commerce/530.html]
[testseries.edugorilla.com/ecatalog/248/aibe-bar-council.html]
[testseries.edugorilla.com/ecatalog/1711/bachelor-of-arts-entrance-ba.html]
[testseries.edugorilla.com/ecatalog/258/cma-foundation.html]
[testseries.edugorilla.com/ecatalog/244/commerce.html]
[testseries.edugorilla.com/ecatalog/268/french.html]
[testseries.edugorilla.com/ecatalog/250/gandhian-studies.html]
[testseries.edugorilla.com/ecatalog/242/institute-of-chartered-accountants-of-india-icai.html]
[testseries.edugorilla.com/ecatalog/233/law-entrance.html]
[testseries.edugorilla.com/exams/insurance/534.html]
[testseries.edugorilla.com/ecatalog/182/employees-state-insurance-corporation-esic.html]
[testseries.edugorilla.com/ecatalog/211/general-insurance-corporation-of-india-gic.html]
[testseries.edugorilla.com/ecatalog/215/junior-officer-irda.html]
[testseries.edugorilla.com/ecatalog/121/lic.html]
[testseries.edugorilla.com/ecatalog/227/nism.html]
[testseries.edugorilla.com/ecatalog/1352/national-insurance-company-limited-nicl.html]
[testseries.edugorilla.com/ecatalog/1136/oriental-insurance-company-limited-oicl.html]
[testseries.edugorilla.com/ecatalog/735/securities-and-exchange-board-of-india-sebi.html]
[testseries.edugorilla.com/ecatalog/160/the-new-india-assurance-company-limited-niacl.html]
[testseries.edugorilla.com/ecatalog/1083/united-india-insurance-company-uiic.html]
[testseries.edugorilla.com/exams/school-level-all-india/529.html]
[testseries.edugorilla.com/ecatalog/385/cbse.html]
[testseries.edugorilla.com/ecatalog/442/cbse-vbq.html]
[testseries.edugorilla.com/ecatalog/444/cbse-aptitude.html]
[testseries.edugorilla.com/ecatalog/425/english-olympiads.html]
[testseries.edugorilla.com/ecatalog/410/hbbvs.html]
[testseries.edugorilla.com/ecatalog/394/icse.html]
[testseries.edugorilla.com/ecatalog/417/jawahar-navodaya-entrance.html]
[testseries.edugorilla.com/ecatalog/405/kvpy-kishore-vaigyanik-protsahan-yojana.html]
[testseries.edugorilla.com/ecatalog/412/mtse.html]
[testseries.edugorilla.com/ecatalog/408/nco-national-cyber-olympiad.html]
[testseries.edugorilla.com/ecatalog/414/sainik-school-entrance.html]
[testseries.edugorilla.com/ecatalog/965/science-olympiad-foundation-international-commerce-olympiad-sof-ico.html]
[testseries.edugorilla.com/ecatalog/966/science-olympiad-foundation-international-general-knowledge-olympiad-sof-igko.html]
[testseries.edugorilla.com/ecatalog/964/science-olympiad-foundation-international-mathematics-olympiad-sof-imo.html]
[testseries.edugorilla.com/ecatalog/963/science-olympiad-foundation-national-science-olympiad-sof-nso.html]
[testseries.edugorilla.com/ecatalog/502/smart-test.html]
[testseries.edugorilla.com/exams/school-level-state-boards/949.html]
[testseries.edugorilla.com/ecatalog/452/andhra-pradesh-board.html]
[testseries.edugorilla.com/ecatalog/1541/bihar-board.html]
[testseries.edugorilla.com/ecatalog/475/gujarat-board.html]
[testseries.edugorilla.com/ecatalog/1575/haryana-board.html]
[testseries.edugorilla.com/ecatalog/1582/himachal-pradesh-board.html]
[testseries.edugorilla.com/ecatalog/484/jammu-and-kashmir-board.html]
[testseries.edugorilla.com/ecatalog/1553/jharkhand-board.html]
[testseries.edugorilla.com/ecatalog/446/kerala-board.html]
[testseries.edugorilla.com/ecatalog/466/madhya-pradesh-board.html]
[testseries.edugorilla.com/ecatalog/472/maharashtra-board.html]
[testseries.edugorilla.com/ecatalog/435/odisha-board.html]
[testseries.edugorilla.com/ecatalog/437/punjab-board.html]
[testseries.edugorilla.com/ecatalog/875/rajasthan-board.html]
[testseries.edugorilla.com/ecatalog/455/tamil-nadu-board.html]
[testseries.edugorilla.com/ecatalog/1567/uttar-pradesh-up-board.html]
[testseries.edugorilla.com/ecatalog/478/uttarakhand-board.html]
[testseries.edugorilla.com/ecatalog/422/west-bengal-board.html]
[testseries.edugorilla.com/exams/foreign-education/532.html]
[testseries.edugorilla.com/ecatalog/46/act.html]
[testseries.edugorilla.com/ecatalog/48/gmat.html]
[testseries.edugorilla.com/ecatalog/38/gre.html]
[testseries.edugorilla.com/ecatalog/35/ielts.html]
[testseries.edugorilla.com/ecatalog/1055/international-english-proficiency.html]
[testseries.edugorilla.com/ecatalog/33/pte.html]
[testseries.edugorilla.com/ecatalog/41/sat.html]
[testseries.edugorilla.com/ecatalog/44/sat-subject.html]
[testseries.edugorilla.com/ecatalog/622/toefl.html]
[testseries.edugorilla.com/exams/defence-police/517.html]
[testseries.edugorilla.com/ecatalog/95/a-p-police.html]
[testseries.edugorilla.com/ecatalog/1234/assam-police.html]
[testseries.edugorilla.com/ecatalog/732/assam-rifles.html]
[testseries.edugorilla.com/ecatalog/138/bsfasi-hc.html]
[testseries.edugorilla.com/ecatalog/882/bihar-police.html]
[testseries.edugorilla.com/ecatalog/207/central-armed-police-forces-capf-ac.html]
[testseries.edugorilla.com/ecatalog/718/central-industrial-security-force-cisf.html]
[testseries.edugorilla.com/ecatalog/862/central-reserve-police-force-crpf.html]
[testseries.edugorilla.com/ecatalog/136/coast-guard.html]
[testseries.edugorilla.com/ecatalog/780/delhi-police.html]
[testseries.edugorilla.com/ecatalog/1312/goa-police.html]
[testseries.edugorilla.com/ecatalog/708/haryana-police.html]
[testseries.edugorilla.com/ecatalog/369/ind-maritime-imu-cet-ug.html]
[testseries.edugorilla.com/ecatalog/97/indian-air-force-iaf.html]
[testseries.edugorilla.com/ecatalog/848/indian-army.html]
[testseries.edugorilla.com/ecatalog/710/indian-navy.html]
[testseries.edugorilla.com/ecatalog/119/intelligence-bureau.html]
[testseries.edugorilla.com/ecatalog/1493/jammu-kashmir-police.html]
[testseries.edugorilla.com/ecatalog/1066/karnataka-state-police-ksp.html]
[testseries.edugorilla.com/ecatalog/204/madhya-pradesh-police.html]
[testseries.edugorilla.com/ecatalog/1692/meghalaya-police.html]
[testseries.edugorilla.com/ecatalog/1011/punjab-police.html]
[testseries.edugorilla.com/ecatalog/755/rajasthan-police.html]
[testseries.edugorilla.com/ecatalog/1000/telangana-police.html]
[testseries.edugorilla.com/ecatalog/740/territorial-army.html]
[testseries.edugorilla.com/ecatalog/92/up-police-upp.html]
[testseries.edugorilla.com/ecatalog/84/upsc-cds.html]
[testseries.edugorilla.com/ecatalog/86/upsc-nda.html]
[testseries.edugorilla.com/ecatalog/1249/west-bengal-police.html]
[testseries.edugorilla.com/exams/skill-aptitude-and-language-test/523.html]
[testseries.edugorilla.com/ecatalog/274/aptitude.html]
[testseries.edugorilla.com/ecatalog/645/arabic.html]
[testseries.edugorilla.com/ecatalog/1089/banking-financial-awareness.html]
[testseries.edugorilla.com/ecatalog/643/chinese.html]
[testseries.edugorilla.com/ecatalog/1477/computer-basics.html]
[testseries.edugorilla.com/ecatalog/1433/computer-systems.html]
[testseries.edugorilla.com/ecatalog/1497/design-and-creativity.html]
[testseries.edugorilla.com/ecatalog/646/dutch.html]
[testseries.edugorilla.com/ecatalog/263/english.html]
[testseries.edugorilla.com/ecatalog/260/general-knowledge.html]
[testseries.edugorilla.com/ecatalog/1071/general-studies.html]
[testseries.edugorilla.com/ecatalog/638/german.html]
[testseries.edugorilla.com/ecatalog/632/hindi.html]
[testseries.edugorilla.com/ecatalog/1068/hindi-language.html]
[testseries.edugorilla.com/ecatalog/276/iq.html]
[testseries.edugorilla.com/ecatalog/1467/internet.html]
[testseries.edugorilla.com/ecatalog/642/japanese.html]
[testseries.edugorilla.com/ecatalog/633/kannada.html]
[testseries.edugorilla.com/ecatalog/640/mandarin.html]
[testseries.edugorilla.com/ecatalog/636/marathi.html]
[testseries.edugorilla.com/ecatalog/280/microsoft-office.html]
[testseries.edugorilla.com/ecatalog/286/ncat.html]
[testseries.edugorilla.com/ecatalog/904/nsdc.html]
[testseries.edugorilla.com/ecatalog/1454/operations.html]
[testseries.edugorilla.com/ecatalog/1634/personal-effectiveness.html]
[testseries.edugorilla.com/ecatalog/644/portuguese.html]
[testseries.edugorilla.com/ecatalog/272/psychometric.html]
[testseries.edugorilla.com/ecatalog/1417/research-analytics.html]
[testseries.edugorilla.com/ecatalog/1422/sales-marketing.html]
[testseries.edugorilla.com/ecatalog/637/sanskrit.html]
[testseries.edugorilla.com/ecatalog/639/spanish.html]
[testseries.edugorilla.com/ecatalog/1625/spoken-english.html]
[testseries.edugorilla.com/ecatalog/971/tv-shows.html]
[testseries.edugorilla.com/ecatalog/634/tamil.html]
[testseries.edugorilla.com/ecatalog/635/telugu.html]
[testseries.edugorilla.com/ecatalog/641/urdu.html]
[testseries.edugorilla.com/exams/designing/522.html]
[testseries.edugorilla.com/ecatalog/684/architecture.html]
[testseries.edugorilla.com/ecatalog/1209/army-institute-of-fashion-and-design-aifd.html]
[testseries.edugorilla.com/ecatalog/361/fddi-footwear-design-and-development.html]
[testseries.edugorilla.com/ecatalog/239/fashion-designing.html]
[testseries.edugorilla.com/ecatalog/1221/national-institute-of-fashion-technology-nift.html]
[testseries.edugorilla.com/exams/it-placement-papers/541.html]
[testseries.edugorilla.com/ecatalog/166/amcat.html]
[testseries.edugorilla.com/ecatalog/1358/amazon-web-services-aws.html]
[testseries.edugorilla.com/ecatalog/105/placement-papers.html]
[testseries.edugorilla.com/ecatalog/329/programming-languages.html]
[testseries.edugorilla.com/ecatalog/170/elitmus.html]
[testseries.edugorilla.com/exams/license/939.html]
[testseries.edugorilla.com/ecatalog/942/australia.html]
[testseries.edugorilla.com/ecatalog/940/india.html]
[testseries.edugorilla.com/ecatalog/946/usa-canada.html]
[testseries.edugorilla.com/ecatalog/944/united-kingdom.html]
[testseries.edugorilla.com/exams/others/533.html]
[testseries.edugorilla.com/ecatalog/1495/bsc-msc-entrance-examination.html]
[testseries.edugorilla.com/ecatalog/812/bhu-clerk---librarian.html]
[testseries.edugorilla.com/ecatalog/1689/central-universities-common-entrance-test-cucet.html]
[testseries.edugorilla.com/ecatalog/1446/christ-university-entrance-test-cuet.html]
[testseries.edugorilla.com/ecatalog/906/citizenship.html]
[testseries.edugorilla.com/ecatalog/1535/current-affairs.html]
[testseries.edugorilla.com/ecatalog/365/hsee-iit-madras.html]
[testseries.edugorilla.com/ecatalog/842/iit-jam.html]
[testseries.edugorilla.com/ecatalog/508/ipm-olympiads.html]
[testseries.edugorilla.com/ecatalog/130/informatics-asstt-doitc.html]
[testseries.edugorilla.com/ecatalog/1085/institute-of-company-secretaries-of-india-icsi.html]
[testseries.edugorilla.com/ecatalog/351/jexpo.html]
[testseries.edugorilla.com/ecatalog/367/lpu-nest.html]
[testseries.edugorilla.com/ecatalog/353/mass-communication.html]
[testseries.edugorilla.com/ecatalog/440/polytechnic-diploma.html]
[testseries.edugorilla.com/ecatalog/1342/sam-higginbottom-university-of-agriculture-technology-and-sciences-shuats.html]
[testseries.edugorilla.com/static/images/user_profile982b.png]
[testseries.edugorilla.com/signupedb5.html]
[testseries.edugorilla.com/signup8795.html]
[testseries.edugorilla.com/signup58bb.html]
[testseries.edugorilla.com/static/images/gif/loading8614.gif]
[testseries.edugorilla.com/static/images/mobile_header/loadingb413.gif]
[testseries.edugorilla.com/static/media/wl_client_images/f4a51e71c0594fbb8ad24ef8d4b1f976.png]
[testseries.edugorilla.com/static/media/wl_client_images/b6cf5c0119524e53ac5fe4e8f69ff1bc.png]
[testseries.edugorilla.com/static/media/wl_client_images/36dde0d3220b424aa1efb00e3d6ee410.png]
[testseries.edugorilla.com/static/media/wl_client_images/3a38890e483745598c7488af35c558db.png]
[testseries.edugorilla.com/static/images/homepage/layer_1126ab0.png]
[testseries.edugorilla.com/static/images/homepage/whtlabl204e0.png]
[testseries.edugorilla.com/static/images/homepage/whtlabl3dd12.png]
[testseries.edugorilla.com/static/images/homepage/whtlabl158f4.png]
[testseries.edugorilla.com/whitelabel_enquiryc09d.html]
[testseries.edugorilla.com/static/images/test1-060220208667.png]
[testseries.edugorilla.com/static/images/test2-060220207f31.png]
[testseries.edugorilla.com/static/images/testimonial437a4.png]
[testseries.edugorilla.com/static/images/gaurav39b7.png]
[testseries.edugorilla.com/static/images/312d0.png]
[testseries.edugorilla.com/static/images/pr43c8.png]
[testseries.edugorilla.com/static/images/ma968b.png]
[testseries.edugorilla.com/static/images/partners_logo/apriksha0038.png]
[testseries.edugorilla.com/static/images/partners_logo/ca815e.png]
[testseries.edugorilla.com/static/images/partners_logo/cc96f8.png]
[testseries.edugorilla.com/static/images/partners_logo/kendrika156b.png]
[testseries.edugorilla.com/static/images/partners_logo/sarthak5982.png]
[testseries.edugorilla.com/static/images/partners_logo/wda4ddd.png]
[testseries.edugorilla.com/static/images/partners_logo/youngtutorialsa5e5.png]
[testseries.edugorilla.com/static/images/as_seen_on/money-control21b4.png]
[testseries.edugorilla.com/static/images/as_seen_on/india-today1474.png]
[testseries.edugorilla.com/static/images/as_seen_on/toi44ec.png]
[testseries.edugorilla.com/static/images/as_seen_on/ndtv0257.png]
[testseries.edugorilla.com/static/images/as_seen_on/inc4221f8.png]
[testseries.edugorilla.com/static/images/as_seen_on/ht84c6.png]
[testseries.edugorilla.com/static/js/multisliderc934.js]
[testseries.edugorilla.com/static/node_modules/lightslider/js/lightslidere666.js]
[testseries.edugorilla.com/static/media/wl_client_images/3dccabc15acb4412a9a40dd8826b0670.png]
[testseries.edugorilla.com/cdn-cgi/l/email-protection.html]
[edugorilla.com/wp-content/plugins/website-fixes/common/assets/images/snapdeal.png]
[edugorilla.com/wp-content/plugins/website-fixes/common/assets/images/Amazon.png]
[testseries.edugorilla.com/static/images/shopping_partner_logo/flipkarte34b.png]
[testseries.edugorilla.com/static/images/Payment_method_Slice23af.png]
[testseries.edugorilla.com/static/images/google_play2f2a.png]
[testseries.edugorilla.com/sitemap.xml]
[testseries.edugorilla.com/cdn-cgi/scripts/5c5dd728/cloudflare-static/email-decode.min.js]
[connect.facebook.net/en_US/sdk.js]
[testseries.edugorilla.com/POST]
[testseries.edugorilla.com/index.html]
[testseries.edugorilla.com/manifest.html]
[maxcdn.bootstrapcdn.com/bootstrap/3.3.5/css/bootstrap.min.css]
[use.fontawesome.com/releases/v5.12.1/css/all.css]
[testseries.edugorilla.com/static/css/test_series_common8735.css]
[testseries.edugorilla.com/static/matt-mcinerney_raleway/Raleway-SemiBold.ttf]
[testseries.edugorilla.com/static/matt-mcinerney_raleway/Raleway-Regular.ttf]
[testseries.edugorilla.com/static/matt-mcinerney_raleway/Raleway-Medium.ttf]
[testseries.edugorilla.com/static/images/loadingInput.gif]
[testseries.edugorilla.com/static/css/menu_desktop3011.css]
[testseries.edugorilla.com/static/images/desktop-forums.png]
[testseries.edugorilla.com/static/images/comingsoon.png]
[testseries.edugorilla.com/static/images/css_sprites.png]
[testseries.edugorilla.com/static/images/mobile-forums.png]
[testseries.edugorilla.com/static/images/cross.png]
[testseries.edugorilla.com/static/images/menu-bg.png]
[testseries.edugorilla.com/static/images/comingsoon_mobile.png]
[testseries.edugorilla.com/static/css/footer_desktop11f6.css]
[testseries.edugorilla.com/static/css/test_series_menu6d9e.css]
[testseries.edugorilla.com/static/images/new_desktop_homepage/top-Icons.png]
[testseries.edugorilla.com/static/images/new_desktop_homepage/Bgimage.png]
[testseries.edugorilla.com/static/images/new_desktop_homepage/feature-top.png]
[testseries.edugorilla.com/static/images/new_desktop_homepage/quiz_time.png]
[testseries.edugorilla.com/static/images/new_desktop_homepage/controls1.png]
[testseries.edugorilla.com/static/images/new_desktop_homepage/why-edugorilla.png]
[testseries.edugorilla.com/static/css/homepage_newcbe6.css]
[testseries.edugorilla.com/static/node_modules/lightslider/img/controls.png]
[testseries.edugorilla.com/static/node_modules/lightslider/css/lightslider1fcd.css]
[connect.facebook.net/en_US/fbevents.js]
[testseries.edugorilla.com/static/css/ecatalog_L0Singled8cb.css]
[testseries.edugorilla.com/exams/banking/521.html]
[testseries.edugorilla.com/static/js/ecatalog_L0Singlea6f7.js]
[testseries.edugorilla.com/static/css/ecatalog_L1Singlea165.css]
[testseries.edugorilla.com/ecatalog/59/bank-po-clerical.html]
[testseries.edugorilla.com/ecatalog/1062/bank-specialist-officer-so.html]
[testseries.edugorilla.com/exams/government-exams/525.html]
[testseries.edugorilla.com/ecatalog/375/ap-polycet.html]
[testseries.edugorilla.com/ecatalog/168/ap-village-revenue-officer.html]
[testseries.edugorilla.com/ecatalog/158/appsc-welfare-officer.html]
[testseries.edugorilla.com/ecatalog/1635/andhra-pradesh-grama---ward-sachivalayam.html]
[testseries.edugorilla.com/ecatalog/1637/arunachal-pradesh-staff-selection-board-apssb.html]
[testseries.edugorilla.com/ecatalog/782/bhabha-atomic-research-centre-barc.html]
[testseries.edugorilla.com/ecatalog/1291/bihar-combined-entrance-competitive-examination-board-bceceb.html]
[testseries.edugorilla.com/ecatalog/751/bihar-rural-livelihoods-promotion-society-brlps.html]
[testseries.edugorilla.com/ecatalog/1646/bureau-of-indian-standards-bis.html]
[testseries.edugorilla.com/ecatalog/363/cbee-msc-bt-jnu.html]
[testseries.edugorilla.com/ecatalog/606/central-warehousing-corporation-cwc.html]
[testseries.edugorilla.com/ecatalog/1675/chennai-metropolitan-development-authority-cmda.html]
[testseries.edugorilla.com/ecatalog/146/clerk---office-assistant-steno.html]
[testseries.edugorilla.com/ecatalog/728/drdo.html]
[testseries.edugorilla.com/ecatalog/123/employees-provident-fund-organization-epfo.html]
[testseries.edugorilla.com/ecatalog/723/fssai.html]
[testseries.edugorilla.com/ecatalog/1452/film-television-institute-of-india-ftii.html]
[testseries.edugorilla.com/ecatalog/152/fire-operator.html]
[testseries.edugorilla.com/ecatalog/172/food-corporation-of-india-fci.html]
[testseries.edugorilla.com/ecatalog/132/forest-service.html]
[testseries.edugorilla.com/ecatalog/860/gujarat-subordinate-service-selection-board-gsssb.html]
[testseries.edugorilla.com/ecatalog/816/haryana-kurukshetra-university.html]
[testseries.edugorilla.com/ecatalog/725/haryana-ssc.html]
[testseries.edugorilla.com/ecatalog/188/high-court.html]
[testseries.edugorilla.com/ecatalog/1334/himachal-pradesh-staff-selection-commission-hpssc.html]
[testseries.edugorilla.com/ecatalog/1206/income-tax-department.html]
[testseries.edugorilla.com/static/js/ecatalog_L1Singleaf86.js]
[testseries.edugorilla.com/ecatalog/1410/india-post-bhartiya-dak-vibhag.html]
[testseries.edugorilla.com/ecatalog/1277/jammu-kashmir-service-selection-board-jkssb.html]
[testseries.edugorilla.com/ecatalog/959/kendriya-hindi-sansthan.html]
[testseries.edugorilla.com/ecatalog/761/khadi-and-village-industries-commission.html]
[testseries.edugorilla.com/ecatalog/730/mp-professional-examination-board---vyapam.html]
[testseries.edugorilla.com/ecatalog/961/madhya-pradesh-power-generating-company-limited-mp-pgcl.html]
[testseries.edugorilla.com/ecatalog/1009/maharashtra-hsc-board.html]
[testseries.edugorilla.com/ecatalog/800/maharashtra-state-electricity-distribution-co-ltd-mahadiscom.html]
[testseries.edugorilla.com/ecatalog/969/mazagon-dock-shipbuilders-limited-mdl.html]
[testseries.edugorilla.com/ecatalog/1301/motilal-nehru-national-institute-of-technology-mnnit.html]
[testseries.edugorilla.com/ecatalog/337/nactech-nasscom.html]
[testseries.edugorilla.com/ecatalog/826/national-consumer-disputes-redressal-commission-ncdrc.html]
[testseries.edugorilla.com/ecatalog/830/nehru-yuva-kendra-sangathan-nyks.html]
[testseries.edugorilla.com/ecatalog/184/opsc-assistant-section-officer.html]
[testseries.edugorilla.com/ecatalog/785/odisha-staff-selection-commission-ossc.html]
[testseries.edugorilla.com/ecatalog/759/others.html]
[testseries.edugorilla.com/ecatalog/150/punsup-food-inspector.html]
[testseries.edugorilla.com/ecatalog/229/panchayath-development-officer-pdo.html]
[testseries.edugorilla.com/ecatalog/144/prasar-bharti.html]
[testseries.edugorilla.com/ecatalog/1337/punjab-revenue-department.html]
[testseries.edugorilla.com/ecatalog/753/rajasthan-staff-selection-board-rssb.html]
[testseries.edugorilla.com/ecatalog/1371/revenue-department-karnataka.html]
[testseries.edugorilla.com/ecatalog/140/section-officer-commercial-audit.html]
[testseries.edugorilla.com/ecatalog/778/security-printing-and-minting-corporation-of-india-ltd-spmcil.html]
[testseries.edugorilla.com/ecatalog/802/up-anganwadi.html]
[testseries.edugorilla.com/ecatalog/1326/up-combined-agriculture-and-technology-entrance-test-upcatet.html]
[testseries.edugorilla.com/ecatalog/543/upsssc.html]
[testseries.edugorilla.com/ecatalog/571/uttar-pradesh-power-corporation-limited-uppcl.html]
[testseries.edugorilla.com/ecatalog/1019/uttarakhand-board-of-technical-education-ubter.html]
[testseries.edugorilla.com/ecatalog/1050/uttarakhand-subordinate-service-selection-commission-uksssc.html]
[testseries.edugorilla.com/exams/ssc/531.html]
[testseries.edugorilla.com/ecatalog/190/bihar-staff-selection-commission-bssc.html]
[testseries.edugorilla.com/ecatalog/73/chsl-combined-higher-secondary-level.html]
[testseries.edugorilla.com/ecatalog/82/ssc-cgl-tier-1-2.html]
[testseries.edugorilla.com/ecatalog/1373/ssc-common-entrance-test-cet.html]
[testseries.edugorilla.com/ecatalog/80/ssc-constable-gd.html]
[testseries.edugorilla.com/ecatalog/88/ssc-mts.html]
[testseries.edugorilla.com/ecatalog/889/ssc-pradhyapak.html]
[testseries.edugorilla.com/ecatalog/1169/ssc-scientific-assistant.html]
[testseries.edugorilla.com/ecatalog/839/ssc-selection-post.html]
[testseries.edugorilla.com/ecatalog/134/ssc-sub-inspector-cpo.html]
[testseries.edugorilla.com/ecatalog/697/ssc-translator.html]
[testseries.edugorilla.com/ecatalog/142/stenographer-grades-c-and-d.html]
[testseries.edugorilla.com/exams/civil-services/518.html]
[testseries.edugorilla.com/ecatalog/75/civil-services-upsc-prelims.html]
[testseries.edugorilla.com/ecatalog/864/state-commissioned-exams.html]
[testseries.edugorilla.com/ecatalog/536/state-psc-prelims.html]
[testseries.edugorilla.com/exams/engineering-entrance/528.html]
[testseries.edugorilla.com/ecatalog/539/engineering-all-india.html]
[testseries.edugorilla.com/ecatalog/1166/iti---polytechnic.html]
[testseries.edugorilla.com/ecatalog/538/state-engineering-exams.html]
[testseries.edugorilla.com/exams/medical/520.html]
[testseries.edugorilla.com/ecatalog/873/aiims-staff-nurse.html]
[testseries.edugorilla.com/ecatalog/795/medical-clerical-exams.html]
[testseries.edugorilla.com/ecatalog/919/national-health-mission-nhm.html]
[testseries.edugorilla.com/ecatalog/1238/national-rural-health-mission-nrhm.html]
[testseries.edugorilla.com/ecatalog/537/other-medical-exams.html]
[testseries.edugorilla.com/ecatalog/297/pg-medical-entrance.html]
[testseries.edugorilla.com/ecatalog/1680/pharmacy-entrance.html]
[testseries.edugorilla.com/ecatalog/1026/state-level-exams.html]
[testseries.edugorilla.com/ecatalog/299/ug-medical-entrance-neet-aiims-jipmer.html]
[testseries.edugorilla.com/exams/teaching/526.html]
[testseries.edugorilla.com/ecatalog/192/army-welfare-education-society.html]
[testseries.edugorilla.com/ecatalog/934/assam-teaching-eligibility-test-atet.html]
[testseries.edugorilla.com/ecatalog/128/bed-med.html]
[testseries.edugorilla.com/ecatalog/355/bscagriculturebhu.html]
[testseries.edugorilla.com/ecatalog/1015/bihar-special-teacher-eligibility-test-stet.html]
[testseries.edugorilla.com/ecatalog/614/csir-net.html]
[testseries.edugorilla.com/ecatalog/1332/chhattishgarh-teacher-eligibility-test-cgtet.html]
[testseries.edugorilla.com/ecatalog/154/delhi-subordinate-services-selection-board-dsssb.html]
[testseries.edugorilla.com/ecatalog/1148/haryana-teachers-eligibility-test-htet.html]
[testseries.edugorilla.com/ecatalog/1700/karnataka-teacher-eligibility-test-kartet.html]
[testseries.edugorilla.com/ecatalog/548/kendriya-vidyalaya-sangathan-kvs.html]
[testseries.edugorilla.com/ecatalog/1157/kerala-teacher-eligibility-test-ktet.html]
[testseries.edugorilla.com/ecatalog/1307/madhya-pradesh-teacher-eligibility-test-mptet.html]
[testseries.edugorilla.com/ecatalog/1348/motilal-nehru-national-institute-of-technology-mnnit.html]
[testseries.edugorilla.com/ecatalog/125/nta-ugc-net.html]
[testseries.edugorilla.com/ecatalog/631/navodaya-vidyalaya-samiti-nvs.html]
[testseries.edugorilla.com/ecatalog/797/odisha-teachers-eligibility-test-otet.html]
[testseries.edugorilla.com/ecatalog/1202/rajasthan-eligibility-exams-for-teachers-reet.html]
[testseries.edugorilla.com/ecatalog/1683/sikkim-teachers-eligibility-test-sikkim-tet.html]
[testseries.edugorilla.com/ecatalog/1657/staff-selection-board-dadra-and-nagar-haveli-dnhssb.html]
[testseries.edugorilla.com/ecatalog/767/tamil-nadu-teacher-recruitment-board-tn-trb.html]
[testseries.edugorilla.com/ecatalog/90/teachers-eligibility-test-ctet-tet.html]
[testseries.edugorilla.com/ecatalog/561/up-assistant-teacher.html]
[testseries.edugorilla.com/ecatalog/984/uttar-pradesh-teaching-eligibility-test-uptet.html]
[testseries.edugorilla.com/ecatalog/1714/west-bengal-teachers-eligibility-test-wbtet.html]
[testseries.edugorilla.com/exams/management/519.html]
[testseries.edugorilla.com/ecatalog/13/bba-entrance.html]
[testseries.edugorilla.com/ecatalog/21/hotel-management.html]
[testseries.edugorilla.com/ecatalog/25/ignou-openmat.html]
[testseries.edugorilla.com/ecatalog/19/ipm-iimindore.html]
[testseries.edugorilla.com/ecatalog/371/integral-university-entrance-test-iuet.html]
[testseries.edugorilla.com/ecatalog/31/msc-finance-entrance.html]
[testseries.edugorilla.com/ecatalog/1/mba-entrance.html]
[testseries.edugorilla.com/ecatalog/17/nalsar-management-entrance-test.html]
[testseries.edugorilla.com/ecatalog/1344/post-graduate-diploma.html]
[testseries.edugorilla.com/ecatalog/584/shri-ram-college-of-commerce-srcc.html]
[testseries.edugorilla.com/ecatalog/254/tissnet.html]
[testseries.edugorilla.com/ecatalog/29/ugat.html]
[testseries.edugorilla.com/ecatalog/27/upes-met.html]
[testseries.edugorilla.com/exams/computer-information-technology/524.html]
[testseries.edugorilla.com/ecatalog/282/android.html]
[testseries.edugorilla.com/ecatalog/540/bca-entrance.html]
[testseries.edugorilla.com/ecatalog/1412/centre-for-development-of-advanced-computing-cdac.html]
[testseries.edugorilla.com/ecatalog/225/computer-basics.html]
[testseries.edugorilla.com/ecatalog/317/mca-entrance.html]
[testseries.edugorilla.com/exams/graduate-engineering/535.html]
[testseries.edugorilla.com/ecatalog/691/airport-authority-of-india-aai.html]
[testseries.edugorilla.com/ecatalog/1378/barc-engineering-graduate-science-postgraduates.html]
[testseries.edugorilla.com/ecatalog/100/bsnl.html]
[testseries.edugorilla.com/ecatalog/1405/bihar-state-power-holding-company-ltd-bsphcl.html]
[testseries.edugorilla.com/ecatalog/1138/birhan-mumbai-municipal-corporation-bmc.html]
[testseries.edugorilla.com/ecatalog/1281/delhi-metro-rail-corporation-dmrc.html]
[testseries.edugorilla.com/ecatalog/926/delhi-subordinate-staff-selection-board-dsssb.html]
[testseries.edugorilla.com/ecatalog/1152/energy-efficiency-services-limited-eesl.html]
[testseries.edugorilla.com/ecatalog/303/gate.html]
[testseries.edugorilla.com/ecatalog/1264/gujarat-state-electricity-corporation-limited-gsecl.html]
[testseries.edugorilla.com/ecatalog/1005/hssc-je.html]
[testseries.edugorilla.com/ecatalog/315/ies-ese.html]
[testseries.edugorilla.com/ecatalog/1387/jaipur-metro-rail-corporation-jmrc.html]
[testseries.edugorilla.com/ecatalog/1641/jaipur-vidyut-vitran-nigam-limited-jvvnl.html]
[testseries.edugorilla.com/ecatalog/1293/mppeb-sub-engineer.html]
[testseries.edugorilla.com/ecatalog/1261/mppsc-assistant-engineer-ae.html]
[testseries.edugorilla.com/ecatalog/1662/national-informatics-centre-nic.html]
[testseries.edugorilla.com/ecatalog/1288/noida-metro-rail-corporation-nmrc.html]
[testseries.edugorilla.com/ecatalog/1686/others.html]
[testseries.edugorilla.com/ecatalog/1134/paschim-gujarat-vij-company-limited-pgvcl.html]
[testseries.edugorilla.com/ecatalog/995/punjab-sate-power-corporation-limited-pspcl.html]
[testseries.edugorilla.com/ecatalog/563/rrb-je-junior-engineer.html]
[testseries.edugorilla.com/ecatalog/223/ssc-je.html]
[testseries.edugorilla.com/ecatalog/1183/tata-iron-and-steel-company-limited-tisco.html]
[testseries.edugorilla.com/ecatalog/1196/uttar-pradesh-metro-rail-corporation-upmrc.html]
[testseries.edugorilla.com/ecatalog/1040/uttar-pradesh-power-corporation-limited-uppcl.html]
[testseries.edugorilla.com/ecatalog/1365/west-bengal-municipal-service-commission.html]
[testseries.edugorilla.com/ecatalog/846/west-bengal-state-electricity-transmission-company-limited-wbsetcl.html]
[testseries.edugorilla.com/exams/railway/527.html]
[testseries.edugorilla.com/ecatalog/771/rrb-stenographer.html]
[testseries.edugorilla.com/ecatalog/156/railway-apprentice.html]
[testseries.edugorilla.com/ecatalog/568/railway-police-rpf.html]
[testseries.edugorilla.com/ecatalog/68/railway-recruitment-board-rrb.html]
[testseries.edugorilla.com/exams/professional-certification-courses/558.html]
[testseries.edugorilla.com/ecatalog/278/it-certificate-programs.html]
[testseries.edugorilla.com/ecatalog/559/sap.html]
[testseries.edugorilla.com/exams/psus-research/742.html]
[testseries.edugorilla.com/ecatalog/1141/bharat-heavy-electricals-limited-bhel.html]
[testseries.edugorilla.com/ecatalog/1047/bharat-sanchar-nigam-limited-bsnl.html]
[testseries.edugorilla.com/ecatalog/1268/coal-india-limited.html]
[testseries.edugorilla.com/ecatalog/1622/cochin-shipyard-limited-csl.html]
[testseries.edugorilla.com/ecatalog/1716/dedicated-freight-corridor-corporation-of-india-limited-dfccil.html]
[testseries.edugorilla.com/ecatalog/1403/electronics-corporation-of-india-limited-ecil.html]
[testseries.edugorilla.com/ecatalog/1482/haryana-state-electronics-development-corporation-limited-hartron.html]
[testseries.edugorilla.com/ecatalog/1029/hindustan-petroleum-corporation-limited-hpcl.html]
[testseries.edugorilla.com/ecatalog/1321/indian-oil-corporation-limited-iocl.html]
[testseries.edugorilla.com/ecatalog/1079/indian-space-research-organisation-isro.html]
[testseries.edugorilla.com/ecatalog/869/indian-statistical-institute.html]
[testseries.edugorilla.com/ecatalog/1703/manganese-ore-india-limited-moil-limited.html]
[testseries.edugorilla.com/ecatalog/743/national-fertilizers-ltd-nfl.html]
[testseries.edugorilla.com/ecatalog/1719/neyveli-lignite-corporation-india-limited-nlcil.html]
[testseries.edugorilla.com/ecatalog/1678/northern-coalfields-limited-ncl.html]
[testseries.edugorilla.com/ecatalog/893/nuclear-power-corporation-of-india-limited-npcil.html]
[testseries.edugorilla.com/ecatalog/773/oil-india-limited.html]
[testseries.edugorilla.com/ecatalog/978/oil-and-natural-gas-corporation.html]
[testseries.edugorilla.com/ecatalog/1465/rail-india-technical-and-economic-service-ltd-rites.html]
[testseries.edugorilla.com/ecatalog/1142/steel-authority-of-india-limited-sail.html]
[testseries.edugorilla.com/ecatalog/1180/telangana-state-southern-power-distribution-company-ltd-tsspdcl.html]
[testseries.edugorilla.com/ecatalog/1368/vizag-steel-plant-rashtriya-ispat-nigam-ltd-rinl.html]
[testseries.edugorilla.com/exams/finance/1096.html]
[testseries.edugorilla.com/ecatalog/1097/certified-associate-of-indian-institute-of-bankers-caiib.html]
[testseries.edugorilla.com/ecatalog/1408/indian-institute-of-banking-and-finance-iibf.html]
[testseries.edugorilla.com/ecatalog/1099/junior-associate-of-indian-institute-of-bankers-jaiib.html]
[testseries.edugorilla.com/exams/online-test/574.html]
[testseries.edugorilla.com/ecatalog/575/centurion-academy.html]
[testseries.edugorilla.com/exams/law-arts-commerce/530.html]
[testseries.edugorilla.com/ecatalog/248/aibe-bar-council.html]
[testseries.edugorilla.com/ecatalog/1711/bachelor-of-arts-entrance-ba.html]
[testseries.edugorilla.com/ecatalog/258/cma-foundation.html]
[testseries.edugorilla.com/ecatalog/244/commerce.html]
[testseries.edugorilla.com/ecatalog/268/french.html]
[testseries.edugorilla.com/ecatalog/250/gandhian-studies.html]
[testseries.edugorilla.com/ecatalog/242/institute-of-chartered-accountants-of-india-icai.html]
[testseries.edugorilla.com/ecatalog/233/law-entrance.html]
[testseries.edugorilla.com/exams/insurance/534.html]
[testseries.edugorilla.com/ecatalog/182/employees-state-insurance-corporation-esic.html]
[testseries.edugorilla.com/ecatalog/211/general-insurance-corporation-of-india-gic.html]
[testseries.edugorilla.com/ecatalog/215/junior-officer-irda.html]
[testseries.edugorilla.com/ecatalog/121/lic.html]
[testseries.edugorilla.com/ecatalog/227/nism.html]
[testseries.edugorilla.com/ecatalog/1352/national-insurance-company-limited-nicl.html]
[testseries.edugorilla.com/ecatalog/1136/oriental-insurance-company-limited-oicl.html]
[testseries.edugorilla.com/ecatalog/735/securities-and-exchange-board-of-india-sebi.html]
[testseries.edugorilla.com/ecatalog/160/the-new-india-assurance-company-limited-niacl.html]
[testseries.edugorilla.com/ecatalog/1083/united-india-insurance-company-uiic.html]
[testseries.edugorilla.com/exams/school-level-all-india/529.html]
[testseries.edugorilla.com/ecatalog/385/cbse.html]
[testseries.edugorilla.com/ecatalog/442/cbse-vbq.html]
[testseries.edugorilla.com/ecatalog/444/cbse-aptitude.html]
[testseries.edugorilla.com/ecatalog/425/english-olympiads.html]
[testseries.edugorilla.com/ecatalog/410/hbbvs.html]
[testseries.edugorilla.com/ecatalog/394/icse.html]
[testseries.edugorilla.com/ecatalog/417/jawahar-navodaya-entrance.html]
[testseries.edugorilla.com/ecatalog/405/kvpy-kishore-vaigyanik-protsahan-yojana.html]
[testseries.edugorilla.com/ecatalog/412/mtse.html]
[testseries.edugorilla.com/ecatalog/408/nco-national-cyber-olympiad.html]
[testseries.edugorilla.com/ecatalog/414/sainik-school-entrance.html]
[testseries.edugorilla.com/ecatalog/965/science-olympiad-foundation-international-commerce-olympiad-sof-ico.html]
[testseries.edugorilla.com/ecatalog/966/science-olympiad-foundation-international-general-knowledge-olympiad-sof-igko.html]
[testseries.edugorilla.com/ecatalog/964/science-olympiad-foundation-international-mathematics-olympiad-sof-imo.html]
[testseries.edugorilla.com/ecatalog/963/science-olympiad-foundation-national-science-olympiad-sof-nso.html]
[testseries.edugorilla.com/ecatalog/502/smart-test.html]
[testseries.edugorilla.com/exams/school-level-state-boards/949.html]
[testseries.edugorilla.com/ecatalog/452/andhra-pradesh-board.html]
[testseries.edugorilla.com/ecatalog/1541/bihar-board.html]
[testseries.edugorilla.com/ecatalog/475/gujarat-board.html]
[testseries.edugorilla.com/ecatalog/1575/haryana-board.html]
[testseries.edugorilla.com/ecatalog/1582/himachal-pradesh-board.html]
[testseries.edugorilla.com/ecatalog/484/jammu-and-kashmir-board.html]
[testseries.edugorilla.com/ecatalog/1553/jharkhand-board.html]
[testseries.edugorilla.com/ecatalog/446/kerala-board.html]
[testseries.edugorilla.com/ecatalog/466/madhya-pradesh-board.html]
[testseries.edugorilla.com/ecatalog/472/maharashtra-board.html]
[testseries.edugorilla.com/ecatalog/435/odisha-board.html]
[testseries.edugorilla.com/ecatalog/437/punjab-board.html]
[testseries.edugorilla.com/ecatalog/875/rajasthan-board.html]
[testseries.edugorilla.com/ecatalog/455/tamil-nadu-board.html]
[testseries.edugorilla.com/ecatalog/1567/uttar-pradesh-up-board.html]
[testseries.edugorilla.com/ecatalog/478/uttarakhand-board.html]
[testseries.edugorilla.com/ecatalog/422/west-bengal-board.html]
[testseries.edugorilla.com/exams/foreign-education/532.html]
[testseries.edugorilla.com/ecatalog/46/act.html]
[testseries.edugorilla.com/ecatalog/48/gmat.html]
[testseries.edugorilla.com/ecatalog/38/gre.html]
[testseries.edugorilla.com/ecatalog/35/ielts.html]
[testseries.edugorilla.com/ecatalog/1055/international-english-proficiency.html]
[testseries.edugorilla.com/ecatalog/33/pte.html]
[testseries.edugorilla.com/ecatalog/41/sat.html]
[testseries.edugorilla.com/ecatalog/44/sat-subject.html]
[testseries.edugorilla.com/ecatalog/622/toefl.html]
[testseries.edugorilla.com/exams/defence-police/517.html]
[testseries.edugorilla.com/ecatalog/95/a-p-police.html]
[testseries.edugorilla.com/ecatalog/1234/assam-police.html]
[testseries.edugorilla.com/ecatalog/732/assam-rifles.html]
[testseries.edugorilla.com/ecatalog/138/bsfasi-hc.html]
[testseries.edugorilla.com/ecatalog/882/bihar-police.html]
[testseries.edugorilla.com/ecatalog/207/central-armed-police-forces-capf-ac.html]
[testseries.edugorilla.com/ecatalog/718/central-industrial-security-force-cisf.html]
[testseries.edugorilla.com/ecatalog/862/central-reserve-police-force-crpf.html]
[testseries.edugorilla.com/ecatalog/136/coast-guard.html]
[testseries.edugorilla.com/ecatalog/780/delhi-police.html]
[testseries.edugorilla.com/ecatalog/1312/goa-police.html]
[testseries.edugorilla.com/ecatalog/708/haryana-police.html]
[testseries.edugorilla.com/ecatalog/369/ind-maritime-imu-cet-ug.html]
[testseries.edugorilla.com/ecatalog/97/indian-air-force-iaf.html]
[testseries.edugorilla.com/ecatalog/848/indian-army.html]
[testseries.edugorilla.com/ecatalog/710/indian-navy.html]
[testseries.edugorilla.com/ecatalog/119/intelligence-bureau.html]
[testseries.edugorilla.com/ecatalog/1493/jammu-kashmir-police.html]
[testseries.edugorilla.com/ecatalog/1066/karnataka-state-police-ksp.html]
[testseries.edugorilla.com/ecatalog/204/madhya-pradesh-police.html]
[testseries.edugorilla.com/ecatalog/1692/meghalaya-police.html]
[testseries.edugorilla.com/ecatalog/1011/punjab-police.html]
[testseries.edugorilla.com/ecatalog/755/rajasthan-police.html]
[testseries.edugorilla.com/ecatalog/1000/telangana-police.html]
[testseries.edugorilla.com/ecatalog/740/territorial-army.html]
[testseries.edugorilla.com/ecatalog/92/up-police-upp.html]
[testseries.edugorilla.com/ecatalog/84/upsc-cds.html]
[testseries.edugorilla.com/ecatalog/86/upsc-nda.html]
[testseries.edugorilla.com/ecatalog/1249/west-bengal-police.html]
[testseries.edugorilla.com/exams/skill-aptitude-and-language-test/523.html]
[testseries.edugorilla.com/ecatalog/274/aptitude.html]
[testseries.edugorilla.com/ecatalog/645/arabic.html]
[testseries.edugorilla.com/ecatalog/1089/banking-financial-awareness.html]
[testseries.edugorilla.com/ecatalog/643/chinese.html]
[testseries.edugorilla.com/ecatalog/1477/computer-basics.html]
[testseries.edugorilla.com/ecatalog/1433/computer-systems.html]
[testseries.edugorilla.com/ecatalog/1497/design-and-creativity.html]
[testseries.edugorilla.com/ecatalog/646/dutch.html]
[testseries.edugorilla.com/ecatalog/263/english.html]
[testseries.edugorilla.com/ecatalog/260/general-knowledge.html]
[testseries.edugorilla.com/ecatalog/1071/general-studies.html]
[testseries.edugorilla.com/ecatalog/638/german.html]
[testseries.edugorilla.com/ecatalog/632/hindi.html]
[testseries.edugorilla.com/ecatalog/1068/hindi-language.html]
[testseries.edugorilla.com/ecatalog/276/iq.html]
[testseries.edugorilla.com/ecatalog/1467/internet.html]
[testseries.edugorilla.com/ecatalog/642/japanese.html]
[testseries.edugorilla.com/ecatalog/633/kannada.html]
[testseries.edugorilla.com/ecatalog/640/mandarin.html]
[testseries.edugorilla.com/ecatalog/636/marathi.html]
[testseries.edugorilla.com/ecatalog/280/microsoft-office.html]
[testseries.edugorilla.com/ecatalog/286/ncat.html]
[testseries.edugorilla.com/ecatalog/904/nsdc.html]
[testseries.edugorilla.com/ecatalog/1454/operations.html]
[testseries.edugorilla.com/ecatalog/1634/personal-effectiveness.html]
[testseries.edugorilla.com/ecatalog/644/portuguese.html]
[testseries.edugorilla.com/ecatalog/272/psychometric.html]
[testseries.edugorilla.com/ecatalog/1417/research-analytics.html]
[testseries.edugorilla.com/ecatalog/1422/sales-marketing.html]
[testseries.edugorilla.com/ecatalog/637/sanskrit.html]
[testseries.edugorilla.com/ecatalog/639/spanish.html]
[testseries.edugorilla.com/ecatalog/1625/spoken-english.html]
[testseries.edugorilla.com/ecatalog/971/tv-shows.html]
[testseries.edugorilla.com/ecatalog/634/tamil.html]
[testseries.edugorilla.com/ecatalog/635/telugu.html]
[testseries.edugorilla.com/ecatalog/641/urdu.html]
[testseries.edugorilla.com/exams/designing/522.html]
[testseries.edugorilla.com/ecatalog/684/architecture.html]
[testseries.edugorilla.com/ecatalog/1209/army-institute-of-fashion-and-design-aifd.html]
[testseries.edugorilla.com/ecatalog/361/fddi-footwear-design-and-development.html]
[testseries.edugorilla.com/ecatalog/239/fashion-designing.html]
[testseries.edugorilla.com/ecatalog/1221/national-institute-of-fashion-technology-nift.html]
[testseries.edugorilla.com/exams/it-placement-papers/541.html]
[testseries.edugorilla.com/ecatalog/166/amcat.html]
[testseries.edugorilla.com/ecatalog/1358/amazon-web-services-aws.html]
[testseries.edugorilla.com/ecatalog/105/placement-papers.html]
[testseries.edugorilla.com/ecatalog/329/programming-languages.html]
[testseries.edugorilla.com/ecatalog/170/elitmus.html]
[testseries.edugorilla.com/exams/license/939.html]
[testseries.edugorilla.com/ecatalog/942/australia.html]
[testseries.edugorilla.com/ecatalog/940/india.html]
[testseries.edugorilla.com/ecatalog/946/usa-canada.html]
[testseries.edugorilla.com/ecatalog/944/united-kingdom.html]
[testseries.edugorilla.com/exams/others/533.html]
[testseries.edugorilla.com/ecatalog/1495/bsc-msc-entrance-examination.html]
[testseries.edugorilla.com/ecatalog/812/bhu-clerk---librarian.html]
[testseries.edugorilla.com/ecatalog/1689/central-universities-common-entrance-test-cucet.html]
[testseries.edugorilla.com/ecatalog/1446/christ-university-entrance-test-cuet.html]
[testseries.edugorilla.com/ecatalog/906/citizenship.html]
[testseries.edugorilla.com/ecatalog/1535/current-affairs.html]
[testseries.edugorilla.com/ecatalog/365/hsee-iit-madras.html]
[testseries.edugorilla.com/ecatalog/842/iit-jam.html]
[testseries.edugorilla.com/ecatalog/508/ipm-olympiads.html]
[testseries.edugorilla.com/ecatalog/130/informatics-asstt-doitc.html]
[testseries.edugorilla.com/ecatalog/1085/institute-of-company-secretaries-of-india-icsi.html]
[testseries.edugorilla.com/ecatalog/351/jexpo.html]
[testseries.edugorilla.com/ecatalog/367/lpu-nest.html]
[testseries.edugorilla.com/ecatalog/353/mass-communication.html]
[testseries.edugorilla.com/ecatalog/440/polytechnic-diploma.html]
[testseries.edugorilla.com/ecatalog/1342/sam-higginbottom-university-of-agriculture-technology-and-sciences-shuats.html]
[apis.google.com/js/platform.js]
[cdnjs.cloudflare.com/ajax/libs/angular.js/1.6.9/angular-cookies.js]
[testseries.edugorilla.com/static/css/select2.min7dec.css]
[testseries.edugorilla.com/static/css/signup7dd1.css]
[testseries.edugorilla.com/static/js/signupeffb.js]
[testseries.edugorilla.com/signupedb5.html]
[testseries.edugorilla.com/signup8795.html]
[testseries.edugorilla.com/signup58bb.html]
[testseries.edugorilla.com/static/js/select2.min5b5f.js]
[testseries.edugorilla.com/static/css/whitelabel_enquiry_landing_page.css]
[testseries.edugorilla.com/static/node_modules/lightslider/css/lightslider.css]
[testseries.edugorilla.com/static/js/whitelabel_enquiry_landing_page.js]
[testseries.edugorilla.com/static/images/whitelabel_ad_page/wl_3.png]
[testseries.edugorilla.com/static/images/whitelabel_ad_page/07.png]
[testseries.edugorilla.com/static/images/whitelabel_ad_page/08.png]
[testseries.edugorilla.com/static/images/whitelabel_ad_page/09.png]
[testseries.edugorilla.com/static/images/whitelabel_ad_page/wl_2.png]
[testseries.edugorilla.com/static/images/whitelabel_ad_page/wl_4.png]
[testseries.edugorilla.com/static/images/whitelabel_ad_page/wl_1.png]
[testseries.edugorilla.com/static/images/whitelabel_ad_page/wl_6.png]
[testseries.edugorilla.com/static/images/whitelabel_ad_page/wl_5.png]
[testseries.edugorilla.com/static/images/partners_logo/apriksha.png]
[testseries.edugorilla.com/static/images/partners_logo/ca.png]
[testseries.edugorilla.com/static/images/partners_logo/cc.png]
[testseries.edugorilla.com/static/images/partners_logo/sarthak.png]
[testseries.edugorilla.com/static/images/partners_logo/kendrika.png]
[testseries.edugorilla.com/static/images/partners_logo/wda.png]
[testseries.edugorilla.com/static/images/partners_logo/youngtutorials.png]
[testseries.edugorilla.com/static/images/whitelabel_ad_page/06.png]
[testseries.edugorilla.com/whitelabel_enquiryc09d.html]
[testseries.edugorilla.com/static/node_modules/waterwheel/js/jquery.waterwheelCarousel.js]
[testseries.edugorilla.com/cdn-cgi/l/email-protection.html]
[connect.facebook.net/en_US/sdk.js]
[testseries.edugorilla.com/POST.html]
[testseries.edugorilla.com/static/images/desktop-forums.html]
[testseries.edugorilla.com/static/images/css_sprites.html]
[testseries.edugorilla.com/static/images/mobile-forums.html]
[testseries.edugorilla.com/static/images/menu-bg.html]
[testseries.edugorilla.com/static/images/comingsoon_mobile.html]
[testseries.edugorilla.com/static/images/new_desktop_homepage/why-edugorilla.html]
[testseries.edugorilla.com/static/css/ecatalog_L0Singled8cb.css]
[testseries.edugorilla.com/static/css/ecatalog_L1Singlea165.css]
[testseries.edugorilla.com/static/css/select2.min7dec.css]
[testseries.edugorilla.com/static/images/bg-image.png]
[testseries.edugorilla.com/static/images/slice2.png]
[testseries.edugorilla.com/static/images/slice4.png]
[testseries.edugorilla.com/static/css/signup7dd1.css]
[testseries.edugorilla.com/static/images/whitelabel_ad_page/010.png]
[testseries.edugorilla.com/static/images/whitelabel_ad_page/check.png]
[testseries.edugorilla.com/static/css/whitelabel_enquiry_landing_page.css]
[testseries.edugorilla.com/static/node_modules/lightslider/css/lightslider.css]
